%YAML 1.1
%TAG !u! tag:unity3d.com,2011:
--- !u!74 &7400000
AnimationClip:
  m_ObjectHideFlags: 0
  m_CorrespondingSourceObject: {fileID: 0}
  m_PrefabInternal: {fileID: 0}
  m_Name: Open
  serializedVersion: 6
  m_Legacy: 0
  m_Compressed: 0
  m_UseHighQualityCurve: 1
  m_RotationCurves: []
  m_CompressedRotationCurves: []
  m_EulerCurves: []
  m_PositionCurves: []
  m_ScaleCurves: []
  m_FloatCurves: []
  m_PPtrCurves:
  - curve:
    - time: 0
      value: {fileID: 21300000, guid: 1685f67548a840b4cbf13528b37ced8e, type: 3}
    - time: 0.041666668
      value: {fileID: 21300000, guid: 61e62908ecaf32b4f84a2514d38ec5e9, type: 3}
    - time: 0.083333336
      value: {fileID: 21300000, guid: 0a468e5158edd094ea63e6f4ea2387bb, type: 3}
    - time: 0.125
      value: {fileID: 21300000, guid: fa8932cb7f5930d459abc947b9b48e78, type: 3}
    - time: 0.16666667
      value: {fileID: 21300000, guid: 60a36600db33a7e4787bfc2bd2516779, type: 3}
    - time: 0.20833333
      value: {fileID: 21300000, guid: 14b65f8d9c0468143a0950b07ffdf8d3, type: 3}
    - time: 0.25
      value: {fileID: 21300000, guid: 27f4715334bcdd949868a5900f381130, type: 3}
    - time: 0.29166666
      value: {fileID: 21300000, guid: e3c8d30287fa268499028185b5869be4, type: 3}
    - time: 0.33333334
      value: {fileID: 21300000, guid: 67fa68d5e42c41d42b352e72a7cf6e60, type: 3}
    attribute: m_Sprite
    path: 
    classID: 212
    script: {fileID: 0}
  m_SampleRate: 24
  m_WrapMode: 0
  m_Bounds:
    m_Center: {x: 0, y: 0, z: 0}
    m_Extent: {x: 0, y: 0, z: 0}
  m_ClipBindingConstant:
    genericBindings:
    - serializedVersion: 2
      path: 0
      attribute: 0
      script: {fileID: 0}
      typeID: 212
      customType: 23
      isPPtrCurve: 1
    pptrCurveMapping:
    - {fileID: 21300000, guid: 1685f67548a840b4cbf13528b37ced8e, type: 3}
    - {fileID: 21300000, guid: 61e62908ecaf32b4f84a2514d38ec5e9, type: 3}
    - {fileID: 21300000, guid: 0a468e5158edd094ea63e6f4ea2387bb, type: 3}
    - {fileID: 21300000, guid: fa8932cb7f5930d459abc947b9b48e78, type: 3}
    - {fileID: 21300000, guid: 60a36600db33a7e4787bfc2bd2516779, type: 3}
    - {fileID: 21300000, guid: 14b65f8d9c0468143a0950b07ffdf8d3, type: 3}
    - {fileID: 21300000, guid: 27f4715334bcdd949868a5900f381130, type: 3}
    - {fileID: 21300000, guid: e3c8d30287fa268499028185b5869be4, type: 3}
    - {fileID: 21300000, guid: 67fa68d5e42c41d42b352e72a7cf6e60, type: 3}
  m_AnimationClipSettings:
    serializedVersion: 2
    m_AdditiveReferencePoseClip: {fileID: 0}
    m_AdditiveReferencePoseTime: 0
    m_StartTime: 0
    m_StopTime: 0.375
    m_OrientationOffsetY: 0
    m_Level: 0
    m_CycleOffset: 0
    m_HasAdditiveReferencePose: 0
    m_LoopTime: 0
    m_LoopBlend: 0
    m_LoopBlendOrientation: 0
    m_LoopBlendPositionY: 0
    m_LoopBlendPositionXZ: 0
    m_KeepOriginalOrientation: 0
    m_KeepOriginalPositionY: 1
    m_KeepOriginalPositionXZ: 0
    m_HeightFromFeet: 0
    m_Mirror: 0
  m_EditorCurves: []
  m_EulerEditorCurves: []
  m_HasGenericRootTransform: 0
  m_HasMotionFloatCurves: 0
  m_GenerateMotionCurves: 0
  m_Events:
  - time: 0.25
    functionName: OnChestOpened
    data: 
    objectReferenceParameter: {fileID: 0}
    floatParameter: 0
    intParameter: 0
    messageOptions: 0
